\relax 
\providecommand\hyper@newdestlabel[2]{}
\providecommand\HyperFirstAtBeginDocument{\AtBeginDocument}
\HyperFirstAtBeginDocument{\ifx\hyper@anchor\@undefined
\global\let\oldcontentsline\contentsline
\gdef\contentsline#1#2#3#4{\oldcontentsline{#1}{#2}{#3}}
\global\let\oldnewlabel\newlabel
\gdef\newlabel#1#2{\newlabelxx{#1}#2}
\gdef\newlabelxx#1#2#3#4#5#6{\oldnewlabel{#1}{{#2}{#3}}}
\AtEndDocument{\ifx\hyper@anchor\@undefined
\let\contentsline\oldcontentsline
\let\newlabel\oldnewlabel
\fi}
\fi}
\global\let\hyper@last\relax 
\gdef\HyperFirstAtBeginDocument#1{#1}
\providecommand\HyField@AuxAddToFields[1]{}
\providecommand\HyField@AuxAddToCoFields[2]{}
\citation{pan}
\citation{fukunaga,shapiro}
\@writefile{toc}{\contentsline {section}{\numberline {1}Introduction}{1}{section.1}}
\newlabel{intro}{{1}{1}{Introduction}{section.1}{}}
\citation{Donida}
\citation{Donida}
\citation{putzu3,putzu4}
\citation{Rezatofighi}
\citation{Mohamed}
\@writefile{toc}{\contentsline {section}{\numberline {2}Materials and methods}{2}{section.2}}
\@writefile{toc}{\contentsline {subsection}{\numberline {2.1}Datasets}{2}{subsection.2.1}}
\citation{Cseke}
\citation{Wu}
\citation{Halim}
\citation{DiR}
\citation{Berge}
\citation{Kovalev,Lezoray,Lezoray2}
\citation{Piuri,Scotti}
\citation{Madhloom}
\citation{Sinha}
\citation{Kovalev}
\citation{Scotti}
\citation{Chaira}
\citation{putzu5}
\@writefile{toc}{\contentsline {subsection}{\numberline {2.2}Related works}{3}{subsection.2.2}}
\citation{putzu3}
\citation{putzu4}
\citation{caflisch}
\citation{putzu4}
\citation{putzu3}
\@writefile{toc}{\contentsline {section}{\numberline {3}Our approach for White Blood Cells Counting}{4}{section.3}}
\@writefile{toc}{\contentsline {subsection}{\numberline {3.1}Training Data Initialization}{4}{subsection.3.1}}
\@writefile{toc}{\contentsline {subsection}{\numberline {3.2}SVM Implementation}{4}{subsection.3.2}}
\citation{Kovalev,Sinha}
\citation{Malpica}
\citation{Lindblad}
\citation{putzu2}
\@writefile{lof}{\contentsline {figure}{\numberline {1}{\ignorespaces Pipeline of our approach.}}{5}{figure.1}}
\newlabel{fig:Schema}{{1}{5}{Pipeline of our approach}{figure.1}{}}
\@writefile{lof}{\contentsline {figure}{\numberline {2}{\ignorespaces Examples of ROIs selection for WBCs in blue, RBCs in red and plasma in green.}}{5}{figure.2}}
\newlabel{fig:ex6}{{2}{5}{Examples of ROIs selection for WBCs in blue, RBCs in red and plasma in green}{figure.2}{}}
\@writefile{toc}{\contentsline {subsection}{\numberline {3.3}WBCs Separation and Counting}{5}{subsection.3.3}}
\@writefile{lof}{\contentsline {figure}{\numberline {3}{\ignorespaces Original and segmented images from ALL-IDB1, IUMS-IDB, SMC-IDB and related classification performances.}}{6}{figure.3}}
\newlabel{fig:dataset}{{3}{6}{Original and segmented images from ALL-IDB1, IUMS-IDB, SMC-IDB and related classification performances}{figure.3}{}}
\citation{Mahmood}
\citation{Alomari}
\citation{putzu2}
\citation{Alilou}
\@writefile{toc}{\contentsline {section}{\numberline {4}Experimental Evaluation}{7}{section.4}}
\@writefile{lof}{\contentsline {figure}{\numberline {4}{\ignorespaces Leukocyte detection phases: connected components, single objects detection, artefact removal, agglomerates crop and detected leukocytes.}}{7}{figure.4}}
\newlabel{fig:ex9}{{4}{7}{Leukocyte detection phases: connected components, single objects detection, artefact removal, agglomerates crop and detected leukocytes}{figure.4}{}}
\@writefile{lof}{\contentsline {figure}{\numberline {5}{\ignorespaces Application of circular Hough transform to the whole image using an unknown radius and a wrong threshold.}}{8}{figure.5}}
\newlabel{fig:ex10}{{5}{8}{Application of circular Hough transform to the whole image using an unknown radius and a wrong threshold}{figure.5}{}}
\@writefile{lof}{\contentsline {figure}{\numberline {6}{\ignorespaces Classification performance of the system correlated to the number of training samples.}}{8}{figure.6}}
\newlabel{fig:ex12}{{6}{8}{Classification performance of the system correlated to the number of training samples}{figure.6}{}}
\bibcite{pan}{1}
\@writefile{lof}{\contentsline {figure}{\numberline {7}{\ignorespaces Vignetting effect: example of illumination pattern, example of vignetting effect and segmentation accuracies with simulated illumination problems.}}{9}{figure.7}}
\newlabel{fig:ex11}{{7}{9}{Vignetting effect: example of illumination pattern, example of vignetting effect and segmentation accuracies with simulated illumination problems}{figure.7}{}}
\@writefile{toc}{\contentsline {section}{\numberline {5}Conclusions}{9}{section.5}}
\bibcite{fukunaga}{2}
\bibcite{shapiro}{3}
\bibcite{Donida}{4}
\bibcite{Cseke}{5}
\bibcite{Wu}{6}
\bibcite{DiR}{7}
\bibcite{Berge}{8}
\bibcite{Lezoray}{9}
\bibcite{Lezoray2}{10}
\bibcite{Madhloom}{11}
\bibcite{Sinha}{12}
\bibcite{Kovalev}{13}
\bibcite{Scotti}{14}
\bibcite{Piuri}{15}
\bibcite{Halim}{16}
\bibcite{Mohapatra}{17}
\bibcite{Chaira}{18}
\bibcite{putzu5}{19}
\bibcite{putzu3}{20}
\bibcite{putzu4}{21}
\bibcite{caflisch}{22}
\bibcite{putzu2}{23}
\bibcite{Malpica}{24}
\bibcite{Lindblad}{25}
\bibcite{Alilou}{26}
\bibcite{Alomari}{27}
\bibcite{Mahmood}{28}
\bibcite{Mohamed}{29}
\bibcite{Rezatofighi}{30}
