This is BibTeX, Version 0.99dThe top-level auxiliary file: Paper4.aux
The style file: splncs03.bst
Database file #1: main.bib
You're missing a field part---line 582 of file main.bib
 :  year = 
 :         ''2002'',
I'm skipping whatever remains of this entry
Warning--entry type for "Sarrafzadeh" isn't style-file defined
--line 1202 of file main.bib
(There was 1 error message)
